<svg width="24" height="24" viewBox="0 0 24 24" fill="none" xmlns="http://www.w3.org/2000/svg">
  <mask id="mask0_283_9319" style="mask-type:alpha" maskUnits="userSpaceOnUse" x="0" y="0" width="24" height="24">
  <rect width="24" height="24" fill="#D9D9D9"/>
  </mask>
  <g mask="url(#mask0_283_9319)">
  <path d="M8 20C7.45 20 6.97917 19.8042 6.5875 19.4125C6.19583 19.0208 6 18.55 6 18V16C6 15.7167 6.09584 15.4792 6.2875 15.2875C6.47917 15.0958 6.71667 15 7 15H9V12.75C8.5 12.7167 8.00417 12.6125 7.5125 12.4375C7.02083 12.2625 6.59167 12 6.225 11.65C6.125 11.55 6.04584 11.4375 5.9875 11.3125C5.92917 11.1875 5.9 11.0583 5.9 10.925V10.25H5.175C5.04167 10.25 4.9125 10.225 4.7875 10.175C4.6625 10.125 4.55 10.05 4.45 9.95L2.2 7.7C2 7.5 1.9 7.26667 1.9 7C1.9 6.73333 2 6.5 2.2 6.3C2.68333 5.81667 3.33333 5.4625 4.15 5.2375C4.96667 5.0125 5.71667 4.9 6.4 4.9C6.85 4.9 7.2875 4.93333 7.7125 5C8.1375 5.06667 8.56667 5.19167 9 5.375C9 4.99167 9.13333 4.66667 9.4 4.4C9.66667 4.13333 9.99167 4 10.375 4H19C19.55 4 20.0208 4.19583 20.4125 4.5875C20.8042 4.97917 21 5.45 21 6V17C21 17.8333 20.7083 18.5417 20.125 19.125C19.5417 19.7083 18.8333 20 18 20H8ZM11 15H16C16.2833 15 16.5208 15.0958 16.7125 15.2875C16.9042 15.4792 17 15.7167 17 16V17C17 17.2833 17.0958 17.5208 17.2875 17.7125C17.4792 17.9042 17.7167 18 18 18C18.2833 18 18.5208 17.9042 18.7125 17.7125C18.9042 17.5208 19 17.2833 19 17V6H11V6.6L16.725 12.325C16.875 12.475 16.9667 12.6458 17 12.8375C17.0333 13.0292 17.0083 13.2167 16.925 13.4C16.8417 13.5833 16.725 13.7292 16.575 13.8375C16.425 13.9458 16.2333 14 16 14C15.8667 14 15.7375 13.9708 15.6125 13.9125C15.4875 13.8542 15.3833 13.7833 15.3 13.7L12.75 11.15L12.55 11.35C12.3167 11.5833 12.0708 11.7917 11.8125 11.975C11.5542 12.1583 11.2833 12.3 11 12.4V15ZM5.6 8.25H6.9C7.18333 8.25 7.42084 8.34583 7.6125 8.5375C7.80417 8.72917 7.9 8.96667 7.9 9.25V10.4C8.1 10.5333 8.30833 10.625 8.525 10.675C8.74167 10.725 8.96667 10.75 9.2 10.75C9.58333 10.75 9.92917 10.6917 10.2375 10.575C10.5458 10.4583 10.85 10.25 11.15 9.95L11.35 9.75L9.95 8.35C9.46667 7.86667 8.925 7.50417 8.325 7.2625C7.725 7.02083 7.08333 6.9 6.4 6.9C6.06667 6.9 5.75 6.925 5.45 6.975C5.15 7.025 4.85 7.1 4.55 7.2L5.6 8.25ZM15 17H8V18H15.15C15.1 17.85 15.0625 17.6917 15.0375 17.525C15.0125 17.3583 15 17.1833 15 17Z" fill="#1C1B1F"/>
  </g>
</svg>
  