{
  "general": {
    "locale": "de-CH"
  },
  "languages": {
    "translations": {
      "de": ["de.json", "Mock/de.json"]
    },
    "defaultLanguage": "de"
  },
  "themes": {
    "url": "Mock/themes.json",
    "defaultTheme": "Basisinfo"
  },
  "basemaps": {
    "defaultBasemap": "Karte grau",
    "OSM": true,
    "SwissTopoVectorTiles": true
  },
  "treeview": {
    "useLegendIcons": true,
    "hideLegendWhenLayerIsDeactivated": false
  },
  "search": {
    "url": "https://edit.geo.gr.ch/search?limit=30&partitionlimit=5&interface=desktop&query=###SEARCHTERM###",
    "objectPreview": true,
    "layerPreview": true
  },
  "print": {
    "url": "https://edit.geo.gr.ch/printproxy/",
    "defaultLayout": "1 A4 portrait"
  },
  "share": {
    "service": "lstu",
    "createUrl": "https://lstu.fr/a"
  },
  "projections": {
    "EPSG:3857": "W-M",
    "EPSG:4326": "WGS84",
    "EPSG:2056": "LV95"
  },
  "map": {
    "srid": "EPSG:2056",
    "startZoom": "1",
    "startPosition": "2736020,1172666",
    "maxExtent": "2465960,993706,2977184,1346546",
    "scales": [
      800000, 500000, 200000, 100000, 50000, 25000, 20000, 10000, 7500, 5000, 2500, 2000, 1000, 750, 500, 250, 200, 100,
      50
    ]
  },
  "map3d": {
    "terrainUrl": "https://terrain100.geo.admin.ch/1.0.0/ch.swisstopo.terrain.3d/",
    "tilesetsUrls": ["https://vectortiles100.geo.admin.ch/3d-tiles/ch.swisstopo.swisstlm3d.3d/20201020/tileset.json"]
  },
  "bookmarks": {
    "service": "localStorage",
    "get": "",
    "post": ""
  }
}
